{
  "results": [
    {
      "popularity": 30.594,
      "vote_count": 0,
      "video": false,
      "poster_path": "/gBMmgrlH7M9gyzhtNoHjsD0tvFB.jpg",
      "id": 658905,
      "adult": false,
      "backdrop_path": null,
      "original_language": "en",
      "original_title": "Les Parfums",
      "genre_ids": [35],
      "title": "Les Parfums",
      "vote_average": 0,
      "overview": "Anne Walberg is a celebrity in the world of perfume.  She creates fragrances and sells her incredible talent to companies of all kinds.  She lives as a diva, selfish, with a strong temper.  Guillaume is her new driver and the only one who is not afraid to stand up to her.  No doubt this is the reason why she does not fire him.",
      "release_date": "2020-03-25"
    },
    {
      "popularity": 29.458,
      "vote_count": 16,
      "video": false,
      "poster_path": "/7W0G3YECgDAfnuiHG91r8WqgIOe.jpg",
      "id": 446893,
      "adult": false,
      "backdrop_path": "/qsxhnirlp7y4Ae9bd11oYJSX59j.jpg",
      "original_language": "en",
      "original_title": "Trolls World Tour",
      "genre_ids": [12, 16, 35, 14, 10402, 10751],
      "title": "Trolls World Tour",
      "vote_average": 8,
      "overview": "Queen Poppy and Branch make a surprising discovery — there are other Troll worlds beyond their own, and their distinct differences create big clashes between these various tribes. When a mysterious threat puts all of the Trolls across the land in danger, Poppy, Branch, and their band of friends must embark on an epic quest to create harmony among the feuding Trolls to unite them against certain doom.",
      "release_date": "2020-03-12"
    },
    {
      "popularity": 26.311,
      "vote_count": 18,
      "video": false,
      "poster_path": "/kv78WJ2YvWyk3c32sbOGFh64xcs.jpg",
      "id": 510298,
      "adult": false,
      "backdrop_path": "/cdMfn0Jr9RGqKkaX9HyR5l1kiYy.jpg",
      "original_language": "en",
      "original_title": "Seberg",
      "genre_ids": [18, 53],
      "title": "Seberg",
      "vote_average": 6.6,
      "overview": "An ambitious young FBI agent is assigned to investigate iconic actress Jean Seberg when she becomes embroiled in the tumultuous civil rights movement in late 1960s Los Angeles.",
      "release_date": "2019-12-13"
    },
    {
      "popularity": 24.41,
      "vote_count": 0,
      "video": false,
      "poster_path": "/ssvEnBNxfnbpCLxvwCWY5nPTEjN.jpg",
      "id": 597105,
      "adult": false,
      "backdrop_path": "/nhsOkm0pvZrGjxDpuIdJty4Mpy0.jpg",
      "original_language": "ko",
      "original_title": "이장",
      "genre_ids": [35, 18, 14, 10751],
      "title": "Move the Grave",
      "vote_average": 0,
      "overview": "A dysfunctional family is forced begrudgingly into an instant reunion when they have to move their father’s grave due to construction.",
      "release_date": "2020-03-25"
    },
    {
      "popularity": 24.183,
      "vote_count": 11,
      "video": false,
      "poster_path": "/gKxbKcJCPp6IH5auhP1tFbMXsJE.jpg",
      "id": 610892,
      "adult": false,
      "backdrop_path": "/4ey5eIDa3Wj7WZ9JnuOvj4B46Pc.jpg",
      "original_language": "ja",
      "original_title": "ヴァイオレット・エヴァーガーデン 外伝 - 永遠と自動手記人形 -",
      "genre_ids": [16, 18, 14],
      "title": "Violet Evergarden: Eternity and the Auto Memory Doll",
      "vote_average": 8,
      "overview": "Adaptation of \"Violet Evergarden gaiden\", a spin-off of the novel \"Violet Evergarden\" which was previously adapted as an animated television series by the same team.",
      "release_date": "2019-09-06"
    },
    {
      "popularity": 23.922,
      "vote_count": 0,
      "video": false,
      "poster_path": "/l0oC8bHtFtIMFIbE59l09OIDP3z.jpg",
      "id": 616331,
      "adult": false,
      "backdrop_path": "/mlFd5i7fFWMiNWnDrzjsMCGxwQr.jpg",
      "original_language": "fr",
      "original_title": "Adolescentes",
      "genre_ids": [99],
      "title": "Adolescents",
      "vote_average": 0,
      "overview": "Emma and Anaïs are best friends and yet everything in their life seems to set them apart, their social backgrounds but also their personalities. From the age of thirteen to eighteen, Adolescentes follows the two teenagers during these years where radical transformations and first times punctuate daily life. Through their personal stories, the film offers a rare portrait of France and its recent history.",
      "release_date": "2020-03-25"
    },
    {
      "popularity": 23.822,
      "vote_count": 1009,
      "video": false,
      "poster_path": "/d0FWbzrmm99BTfUqf1Lbjl2zu3S.jpg",
      "id": 417384,
      "adult": false,
      "backdrop_path": "/8m9JTau4ZBFQDVX7fyFaxp8yFow.jpg",
      "original_language": "en",
      "original_title": "Scary Stories to Tell in the Dark",
      "genre_ids": [27, 53],
      "title": "Scary Stories to Tell in the Dark",
      "vote_average": 6.3,
      "overview": "Mill Valley, Pennsylvania, Halloween night, 1968. After playing a joke on a school bully, Sarah and her friends decide to sneak into a supposedly haunted house that once belonged to the powerful Bellows family, unleashing dark forces that they will be unable to control.",
      "release_date": "2019-08-08"
    },
    {
      "popularity": 23.584,
      "vote_count": 0,
      "video": false,
      "poster_path": "/1DKpdoclyjKOLWDuvGFlsDUbvaO.jpg",
      "id": 665488,
      "adult": false,
      "backdrop_path": "/5m7dF1CclvHdy1XolfAbsJSaHJe.jpg",
      "original_language": "fr",
      "original_title": "Divorce Club",
      "genre_ids": [35],
      "title": "Divorce Club",
      "vote_average": 0,
      "overview": "",
      "release_date": "2020-03-25"
    },
    {
      "popularity": 23.026,
      "vote_count": 0,
      "video": false,
      "poster_path": "/agiYqXZoczbcdKNx9G5cBWNk2gF.jpg",
      "id": 619605,
      "adult": false,
      "backdrop_path": null,
      "original_language": "he",
      "original_title": "נולדתי בירושלים ואני עדיין חי",
      "genre_ids": [35, 18, 10749],
      "title": "Born in Jerusalem and Still Alive",
      "vote_average": 0,
      "overview": "A black comedy which follows Ronen Matalon's journey to overcome his anxiety of terror attacks. Ronen uses writing and guiding a tour of terror-attack sites along Jerusalem's Jaffa Street to try and break free from his trauma.",
      "release_date": "2020-03-25"
    },
    {
      "popularity": 22.754,
      "vote_count": 0,
      "video": false,
      "poster_path": "/dvO96pnWMVz3ZV1rrwQpDu5QV8O.jpg",
      "id": 575463,
      "adult": false,
      "backdrop_path": "/6tYInZTRlaAqdo1RYoYbezqn1Kn.jpg",
      "original_language": "fr",
      "original_title": "La Daronne",
      "genre_ids": [35, 80, 18],
      "title": "Mama Weed",
      "vote_average": 0,
      "overview": "Patience Portefeux is a French-Arabic police translator, specialized in phone tappings for the anti-narcotics unit. The job is tough and low-paid, but the commander is charming... One day, whilst listening to wanted drug dealers, she discovers one of them is the son of the fantastic woman who takes care of her mother. She decides to protect him and is brought in the middle of a drug network. When she gets her hands on a huge load of hash, with the help of her new partner, the former police dog DNA, she seizes the opportunity and becomes Mama Weed, drug wholesaler, thanks to her field experience... and all the information she gets in her job!",
      "release_date": "2020-03-25"
    },
    {
      "popularity": 22.658,
      "vote_count": 162,
      "video": false,
      "poster_path": "/8ZMrZGGW65ePWIgRn1260nA1uUm.jpg",
      "id": 539537,
      "adult": false,
      "backdrop_path": "/dzfiE2VHY362dGI62XfZ2iI87CT.jpg",
      "original_language": "en",
      "original_title": "Fantasy Island",
      "genre_ids": [14, 27, 878],
      "title": "Fantasy Island",
      "vote_average": 4.9,
      "overview": "A group of contest winners arrive at an island hotel to live out their dreams, only to find themselves trapped in nightmare scenarios.",
      "release_date": "2020-02-12"
    },
    {
      "popularity": 22.618,
      "vote_count": 0,
      "video": false,
      "poster_path": "/wJmeJv3xDLBqttAwMcXUOGa08kF.jpg",
      "id": 679925,
      "adult": false,
      "backdrop_path": "/pEMPwgmSGc7XE0A6BI0l4VBSpaJ.jpg",
      "original_language": "zh",
      "original_title": "御天神兽之穷奇降世",
      "genre_ids": [28, 14],
      "title": "Yu Tian Shen Shou",
      "vote_average": 0,
      "overview": "Coming Soon",
      "release_date": "2020-03-25"
    },
    {
      "popularity": 22.555,
      "vote_count": 0,
      "video": false,
      "poster_path": "/gqiIzSUp9CYBewqVTM8RjCYgcrj.jpg",
      "id": 607102,
      "adult": false,
      "backdrop_path": null,
      "original_language": "fr",
      "original_title": "Aland",
      "genre_ids": [18],
      "title": "Aland",
      "vote_average": 0,
      "overview": "A father runs away form his house after killing his family. The beauty of the forests of Aland at sunrise will show him the horrors of this irremediable act.",
      "release_date": "2020-03-25"
    },
    {
      "popularity": 22.506,
      "vote_count": 0,
      "video": false,
      "poster_path": "/ytHZFu3s7fydW93JCkK2EP5vFiU.jpg",
      "id": 673226,
      "adult": false,
      "backdrop_path": null,
      "original_language": "fr",
      "original_title": "La Maquisarde",
      "genre_ids": [18, 36],
      "title": "La Maquisarde",
      "vote_average": 0,
      "overview": "",
      "release_date": "2020-03-25"
    },
    {
      "popularity": 22.474,
      "vote_count": 0,
      "video": false,
      "poster_path": "/vkSLNTiEUnrfHW4GzYCa2jMcGFj.jpg",
      "id": 548170,
      "adult": false,
      "backdrop_path": "/f5CKvP1g2RzsNv4ppsUJRRJF8Ll.jpg",
      "original_language": "en",
      "original_title": "Guest of Honour",
      "genre_ids": [18],
      "title": "Guest of Honour",
      "vote_average": 0,
      "overview": "Jim and his daughter Veronica, a young high-school music teacher, attempt to unravel their complicated histories and intertwined secrets. After a hoax goes very wrong, Jim's daughter is falsely convicted of abusing her position of authority over 17-year-old Clive. Veronica is nevertheless convinced she deserves to be punished, but for much earlier crimes. Confused and frustrated by Veronica’s intransigence, Jim's anguish begins to impinge on his job as a food inspector. He wields great power over small family-owned restaurants; a power he doesn't hesitate to use.",
      "release_date": "2020-03-26"
    },
    {
      "popularity": 21.829,
      "vote_count": 0,
      "video": false,
      "poster_path": "/Af07K0TATzeEbG1YmwChULduP3S.jpg",
      "id": 672955,
      "adult": false,
      "backdrop_path": null,
      "original_language": "ko",
      "original_title": "사랑하고 있습니까",
      "genre_ids": [14, 10749],
      "title": "Are We In Love?",
      "vote_average": 0,
      "overview": "",
      "release_date": "2020-03-25"
    },
    {
      "popularity": 21.128,
      "id": 11423,
      "video": false,
      "vote_count": 1350,
      "vote_average": 8.1,
      "title": "Memories of Murder",
      "release_date": "2003-05-02",
      "original_language": "ko",
      "original_title": "살인의 추억",
      "genre_ids": [80, 18, 53],
      "backdrop_path": "/uUYCUbgI5VxsUflTMI4Y9L2Y6vb.jpg",
      "adult": false,
      "overview": "1986 Gyunggi Province. The body of a young woman is found brutally raped and murdered. Two months later, a series of rapes and murders commences under similar circumstances. And in a country that had never known such crimes, the dark whispers about a serial murderer grow louder. A special task force is set up in the area, with two local detectives Park Doo-Man and Jo Young-Goo joined by a detective from Seoul who requested to be assigned to the case.",
      "poster_path": "/gawnVe9cFowdoDLo9Pok12NTw39.jpg"
    },
    {
      "popularity": 21.111,
      "vote_count": 0,
      "video": false,
      "poster_path": "/r873ZEKleBttqDvle6ES2szzFqq.jpg",
      "id": 661826,
      "adult": false,
      "backdrop_path": null,
      "original_language": "en",
      "original_title": "Body of Truth",
      "genre_ids": [99],
      "title": "Body of Truth",
      "vote_average": 0,
      "overview": "Four female artists have been politicized by experiences with war, violence and suppression and integrated them into their work, using their most personal tool: their own bodies.",
      "release_date": "2020-03-26"
    },
    {
      "popularity": 20.875,
      "vote_count": 3,
      "video": false,
      "poster_path": "/wT71osd1azUqY0O7nXkTGe9ysG9.jpg",
      "id": 666219,
      "adult": false,
      "backdrop_path": null,
      "original_language": "en",
      "original_title": "Emperor",
      "genre_ids": [18],
      "title": "Emperor",
      "vote_average": 5.7,
      "overview": "An escaped slave travels north and has chance encounters with Frederick Douglass and John Brown. Based on the life story of Shields Green.",
      "release_date": "2020-03-27"
    },
    {
      "popularity": 20.787,
      "vote_count": 0,
      "video": false,
      "poster_path": "/bM4ReT5Ed5M71aTtDsB2Qf8J0W8.jpg",
      "id": 677527,
      "adult": false,
      "backdrop_path": null,
      "original_language": "fr",
      "original_title": "Contre vents et marées",
      "genre_ids": [99],
      "title": "Contre vents et marées",
      "vote_average": 0,
      "overview": "",
      "release_date": "2020-03-25"
    }
  ],
  "page": 2,
  "total_results": 319,
  "dates": {
    "maximum": "2020-04-16",
    "minimum": "2020-03-24"
  },
  "total_pages": 16
}
